<?xml version="1.0" standalone="no"?>
<!DOCTYPE svg PUBLIC "-//W3C//DTD SVG 1.1//EN" "http://www.w3.org/Graphics/SVG/1.1/DTD/svg11.dtd" >
<svg xmlns="http://www.w3.org/2000/svg">
<defs>
  <font id="cempp" horiz-adv-x="256">
    <font-face font-family="cempp"
      units-per-em="256" ascent="256"
      descent="0" />
    <missing-glyph horiz-adv-x="0" />
    <glyph glyph-name="acier"
      unicode="&#xEA02;"
      horiz-adv-x="256" d="M49.152 162.304V164.864C49.152 176.64 52.224 194.048 73.728 194.048C91.136 194.048 97.792 182.784 97.792 165.376V159.232C97.792 143.872 93.184 137.728 86.016 134.656C95.744 131.584 101.376 123.904 101.376 107.52V96.256C101.376 75.776 95.232 61.44 74.24 61.44C54.784 61.44 47.616 73.216 47.616 90.624V94.208H59.392V90.624C59.392 80.384 63.488 72.704 73.728 72.704C84.48 72.704 88.064 79.872 88.064 95.2319999999999V107.52C88.064 123.904 81.92 129.024 70.144 129.024H64.512V139.776H70.144C80.384 139.776 85.504 143.36 85.504 158.208V165.376C85.504 175.616 82.944 183.296 73.216 183.296C62.976 183.296 60.928 175.104 60.928 165.888V162.304zM122.88 62.976V177.664C119.296 175.616 111.104 173.568 107.52 173.056V183.296C114.688 184.832 123.392 189.952 126.464 193.536H135.68V62.976zM193.536 165.376V166.4C193.536 172.544 192.512 183.296 181.248 183.296S167.424 175.104 167.424 157.696V138.24C169.984 143.36 175.104 148.48 185.344 148.48C202.24 148.48 207.36 135.168 207.36 119.808V95.232C207.36 75.264 201.728 60.928 180.736 60.928S154.624 76.288 154.624 95.232V158.72C154.624 180.736 160.768 194.56 181.248 194.56C201.216 194.56 205.824 180.224 205.824 166.4V165.376zM195.072 93.696V118.272C195.072 129.536 192.512 137.728 182.272 137.728C170.496 137.728 167.936 127.488 167.936 114.176V94.208C167.936 82.944 170.496 72.704 181.76 72.704C190.464 72.192 195.072 78.336 195.072 93.696z" />
    <glyph glyph-name="argent"
      unicode="&#xEA03;"
      horiz-adv-x="256" d="M51.2 90.624V89.6C51.2 77.824 55.808 72.192 63.488 72.192C73.728 72.192 77.312 78.336 77.312 100.352V124.928C74.752 118.784 69.632 114.688 59.904 114.688C43.52 114.688 37.888 126.976 37.888 144.896V163.84C37.888 182.784 46.08 194.56 64 194.56C80.384 194.56 89.6 184.832 89.6 163.328V103.936C89.6 77.824 87.04 61.44 63.488 61.44C44.032 61.44 38.912 75.264 38.912 90.112V90.624zM50.176 165.376V145.408C50.176 136.192 52.224 126.464 62.976 126.464C74.752 126.464 77.312 137.216 77.312 150.528V164.864C77.312 177.664 73.728 183.808 64 183.808C54.784 183.808 50.176 178.176 50.176 165.376zM99.84 62.976V65.024C99.84 84.48 109.056 100.352 124.928 123.904C135.68 139.264 138.24 145.92 138.24 160.256C138.24 176.64 135.68 183.808 125.952 183.808C116.736 183.808 113.152 176.64 113.152 164.864V158.72H101.376V164.864C101.376 178.688 105.472 194.048 126.976 194.048C146.944 194.048 151.552 179.2 151.552 160.256C151.552 140.288 146.432 132.096 136.192 117.76C123.392 99.328 115.2 84.992 114.176 73.728H154.112L152.064 62.464zM214.016 181.76H181.76C180.736 170.496 179.712 151.552 178.688 141.312C181.248 145.92 187.392 149.504 195.072 149.504C212.48 149.504 217.6 136.704 217.6 115.2V99.84C217.6 78.848 212.48 62.464 189.952 62.464C169.472 62.464 163.328 76.8 163.328 93.184V95.232H176.128V92.16C176.128 82.944 179.2 73.728 189.952 73.728C202.2400000000001 73.728 204.288 83.968 204.288 98.304V115.7119999999999C204.288 130.56 202.24 139.2639999999999 190.976 139.2639999999999C182.272 139.2639999999999 178.176 134.1439999999999 176.128 124.928L164.864 125.952C166.912 143.872 169.472 182.2719999999999 169.984 194.56H215.04z" />
    <glyph glyph-name="collier"
      unicode="&#xEA04;"
      horiz-adv-x="256" d="M134.144 118.272C137.216 119.808 139.776 121.856 140.8 124.928C141.312 125.952 140.8 127.488 139.776 128.512C138.752 129.024 137.216 128.512 136.192 127.488C134.656 124.416 131.072 122.368 126.464 122.368C120.832 122.368 115.712 127.488 115.712 133.12S120.832 143.872 126.464 143.872C127.488 143.872 129.024 143.36 130.56 142.848S133.12 143.36 133.632 144.384C134.144 145.92 133.12 146.944 132.096 147.456C130.56 147.968 128.512 148.48 125.952 148.48C117.248 148.48 110.08 141.312 110.08 132.608C110.08 126.464 114.176 120.832 119.296 118.272L89.6 100.864C88.576 100.352 88.576 99.328 88.576 98.816V57.856C88.576 56.832 89.088 56.32 90.112 55.808L125.44 35.84C125.952 35.84 126.464 35.328 126.464 35.328C126.976 35.328 127.488 35.328 127.488 35.84L162.304 55.808C163.328 56.32 163.84 57.344 163.84 57.856V98.816C163.84 99.84 163.328 100.352 162.816 100.864zM159.744 59.392L127.488 40.96L94.72 59.392V97.28L127.488 116.224L159.744 97.28zM124.928 106.496V98.304L111.616 90.624L104.448 95.232C103.424 95.744 101.888 95.744 100.864 94.208C100.352 93.184 100.352 91.648 101.888 90.624L109.568 86.016V70.656L101.888 66.56C100.864 66.048 100.352 64.5119999999999 100.864 62.9759999999999C101.376 61.9519999999999 102.4 61.4399999999999 102.912 61.4399999999999S103.936 61.4399999999999 103.936 61.9519999999999L111.616 66.048L124.928 58.8799999999999V50.1759999999999C124.928 48.6399999999999 125.952 47.6159999999999 127.488 47.6159999999999S130.048 48.6399999999999 130.048 50.1759999999999V58.8799999999999L142.848 66.048L150.528 61.9519999999999C151.04 61.9519999999999 151.552 61.4399999999999 151.552 61.4399999999999C152.576 61.4399999999999 153.6 61.9519999999999 153.6 62.9759999999999C154.112 63.9999999999999 153.6 65.536 152.576 66.56L145.408 70.656V86.016L153.088 90.624C154.112 91.136 154.624 92.672 154.112 94.208C153.6 95.232 152.064 95.744 150.528 95.232L143.36 91.136L130.56 98.816V107.008C130.56 108.544 129.536 109.568 128 109.568S124.928 108.032 124.928 106.496zM140.288 70.656L127.488 63.488L114.176 70.656V86.016L127.488 93.696L140.288 86.016zM216.064 217.088C216.064 167.936 161.28 141.312 128.512 129.536H127.488C126.464 129.536 125.44 130.048 124.928 131.072C124.416 132.608 124.928 133.632 126.464 134.144C157.696 145.408 210.944 171.008 210.944 216.576C210.944 218.112 211.968 219.136 213.504 219.136S216.064 218.624 216.064 217.088zM105.472 138.24C74.752 152.064 38.4 176.64 38.4 217.088C38.4 218.624 39.424 219.648 40.96 219.648S43.52 218.624 43.52 217.088C43.52 179.712 78.336 156.16 107.52 143.36C109.056 142.848 109.568 141.312 109.056 139.776C108.544 138.752 107.52 138.24 106.496 138.24H105.472z" />
    <glyph glyph-name="diamant"
      unicode="&#xEA05;"
      horiz-adv-x="256" d="M201.216 209.408H54.784L20.48 162.816L128 45.568L235.52 162.816zM163.328 160.256L128 56.832L92.672 160.256zM94.72 165.376L128 202.752L161.28 165.376zM133.632 204.288H194.56L166.912 166.912zM89.088 166.912L61.44 204.288H122.368zM83.968 165.376H28.672L56.32 202.752zM87.04 160.256L121.344 59.904L29.184 160.256zM168.96 160.256H226.816L134.656 59.904zM172.032 165.376L199.68 202.752L227.328 165.376z" />
    <glyph glyph-name="bracelets"
      unicode="&#xEA06;"
      horiz-adv-x="256" d="M230.912 150.016C229.888 168.448 197.632 182.784 150.016 186.88C147.968 187.392 145.92 186.368 144.384 184.832C139.264 178.688 139.264 160.256 142.848 151.04C144.384 147.456 146.432 145.408 148.992 144.896C169.472 143.36 187.904 139.776 201.728 133.632C203.264 133.12 204.288 133.632 205.312 135.168C205.824 136.704 205.312 137.728 203.776 138.752C188.928 144.896 169.984 148.48 149.504 150.016C149.504 150.016 148.48 150.528 147.456 152.576C144.384 160.256 144.384 177.152 147.968 181.248C148.48 181.76 148.48 181.76 148.992 181.76C193.536 178.176 225.2800000000001 164.352 225.2800000000001 148.992C225.2800000000001 132.608 185.856 115.2 126.976 115.2S29.184 132.608 29.184 148.992C29.184 164.352 61.44 178.176 105.984 181.76L106.496 181.248C110.08 177.152 110.08 160.768 107.008 152.576C105.984 150.528 105.472 150.016 104.96 150.016C83.968 148.48 65.024 144.384 50.176 138.752C48.64 138.24 48.128 136.704 48.64 135.168S50.688 133.12 52.224 133.632C66.048 139.264 84.992 143.36 105.472 144.896C108.032 145.408 110.08 147.456 111.616 151.04C115.2 160.256 115.2 178.688 110.08 184.832C108.544 186.88 106.496 187.392 104.96 186.88C58.88 183.296 27.136 168.96 24.064 151.552C23.552 151.04 23.552 150.528 23.552 149.504V107.52C23.552 85.504 68.096 68.608 127.488 68.608C185.344 68.608 230.912 85.504 230.912 107.52V149.504zM225.792 107.52C225.792 91.136 186.368 73.728 127.488 73.728C73.216 73.728 28.672 89.088 28.672 107.52V137.216C41.472 121.344 80.384 110.08 127.488 110.08C174.08 110.08 212.48 121.344 225.792 136.704z" />
    <glyph glyph-name="discount"
      unicode="&#xEA07;"
      horiz-adv-x="256" d="M232.448 117.76L212.992 148.992L218.112 185.344C218.112 186.368 217.6 187.904 216.576 187.904L180.736 199.68L161.28 230.4C160.768 231.424 159.232 231.936 158.208 231.424L123.904 217.6L89.088 228.864C88.064 229.376 86.528 228.864 86.016 227.84L68.608 195.584L34.816 181.76C33.792 181.248 32.768 180.224 33.28 178.688L40.96 142.336L23.552 110.08C23.04 109.056 23.04 107.52 24.064 107.008L53.248 84.48L61.44 48.128C61.952 47.104 62.464 46.08 64 46.08L100.864 47.616L130.048 25.088C130.56 24.576 131.072 24.576 131.584 24.576S132.608 24.576 133.12 25.088L160.768 49.664L197.632 51.2C198.656 51.2 199.68 52.224 200.192 53.248L205.312 89.6L232.96 114.688C232.96 115.2 233.472 116.736 232.448 117.76zM200.704 92.672C200.192 92.16 199.68 91.648 199.68 91.136L195.072 55.808L159.232 54.272C158.72 54.272 158.208 54.272 157.696 53.76L131.072 30.208L102.912 51.712C102.4 52.224 101.888 52.224 101.376 52.224L65.536 50.688L57.856 86.016C57.856 86.528 57.344 87.04 56.832 87.552L28.672 109.056L45.568 140.288C46.08 141.312 46.08 141.824 46.08 142.336L38.4 177.664L71.168 190.976C71.68 190.976 72.192 191.488 72.192 192L89.088 223.232L122.88 212.48H124.416L157.696 225.792L176.64 196.096C177.152 195.584 177.664 195.072 178.176 195.072L212.48 183.808L207.872 148.48C207.872 147.968 207.872 147.456 208.384 146.944L227.328 116.736zM151.552 131.072C139.264 131.072 132.608 123.392 132.608 111.104V92.672C132.608 78.336 139.776 72.192 151.552 72.192C163.84 72.192 170.4960000000001 79.36 170.4960000000001 93.184V110.592C170.4960000000001 123.3920000000001 163.84 131.0720000000001 151.552 131.0720000000001zM156.16 92.672C156.16 88.064 155.136 85.504 151.552 85.504S146.944 88.064 146.944 92.16V111.616C146.944 115.712 148.48 118.272 151.552 118.272S155.648 116.224 155.648 111.616V92.672zM158.208 182.272L107.52 73.728H97.28L147.968 181.76H158.208zM123.392 145.92V163.328C123.392 175.616 116.736 183.808 104.96 183.808C92.672 183.808 86.016 176.64 86.016 163.84V145.408C86.016 130.56 93.696 124.928 104.96 124.928C116.736 124.928 123.392 132.096 123.392 145.92zM99.84 144.896V164.352C99.84 168.448 101.376 171.0080000000001 104.448 171.0080000000001S108.544 168.96 108.544 164.352V144.896C108.544 140.8 107.52 137.728 103.936 137.728C100.864 137.728 99.84 140.288 99.84 144.896z" />
    <glyph glyph-name="new"
      unicode="&#xEA08;"
      horiz-adv-x="256" d="M229.888 119.296L225.792 123.392C224.768 124.416 223.744 126.464 223.744 128S224.256 131.584 225.792 132.608L229.888 136.704C232.448 139.264 233.984 142.848 233.472 146.432C232.96 150.528 230.4 153.6 226.816 155.136L221.696 157.184C220.16 157.696 219.136 159.232 218.624 160.768S218.112 163.84 219.136 165.888L221.696 171.008C223.744 174.592 223.744 178.176 221.696 181.76S216.576 187.392 212.48 187.904L206.848 188.416C203.264 188.928 200.704 191.488 200.704 195.584L201.216 201.216C201.728 205.312 199.68 208.896 196.608 211.456S189.952 214.528 186.368 212.992L180.736 211.456C179.2 209.92 177.152 209.92 175.616 210.944S173.056 212.992 172.544 215.04L171.52 220.16C170.496 223.744 167.936 226.816 164.352 228.352S156.672 229.376 153.5999999999999 226.816L148.9919999999999 223.232C147.4559999999999 222.208 145.9199999999999 221.696 144.3839999999999 222.208S141.3119999999999 223.232 140.7999999999999 224.768L137.7279999999999 229.376C135.6799999999999 232.448 132.0959999999999 234.496 128.5119999999999 234.496S121.3439999999999 232.448 119.2959999999999 229.376L116.2239999999999 224.768C115.1999999999999 223.232 114.1759999999999 222.72 112.6399999999999 222.208S109.0559999999999 222.208 108.0319999999999 223.232L102.4 226.816C99.328 228.864 95.232 229.376 91.648 228.352C88.064 226.816 85.504 224.256 84.48 220.16L83.456 214.016C82.944 212.48 81.92 210.944 80.384 210.432C78.848 209.408 77.312 209.408 75.776 209.92L70.144 211.456C66.56 212.48 62.976 211.968 59.904 209.92C56.832 207.36 55.296 203.776 55.296 199.68L55.808 194.048C55.808 192.512 55.296 190.464 54.272 189.44S51.712 187.392 50.176 187.392H44.032C40.448 186.368 37.376 184.32 35.84 181.248C33.792 178.176 33.792 174.08 35.328 170.496L37.888 165.376C38.912 163.84 38.912 162.304 38.4 160.768S36.864 157.696 35.328 157.184L30.208 155.136C26.624 153.6 24.064 150.016 23.552 146.432S24.064 139.264 27.136 136.704L30.72 132.608C31.744 131.584 32.768 129.536 32.768 128S32.256 124.416 30.72 123.392L26.624 119.296C24.064 116.736 22.528 113.152 23.04 109.568C23.552 105.472 26.112 102.4 29.696 100.864L34.816 98.816C36.352 98.304 37.376 96.768 37.888 95.232S38.4 92.16 37.376 90.112L34.816 84.992C32.768 81.92 32.768 77.824 34.816 74.24S39.936 68.608 44.032 68.096L49.152 67.584C52.736 67.072 55.296 64.5119999999999 55.296 60.4159999999999L54.784 54.7839999999999C54.272 50.6879999999999 56.32 47.1039999999999 59.392 44.5439999999999S66.048 41.4719999999999 69.632 43.0079999999999L75.264 44.5439999999999C76.8 45.0559999999999 78.336 45.0559999999999 79.872 44.0319999999999S82.432 41.9839999999999 82.944 39.9359999999999L84.48 34.3039999999999C85.504 30.7199999999999 88.064 27.6479999999999 91.648 26.1119999999999S99.328 25.0879999999999 102.4 27.6479999999999L107.008 31.2319999999999C108.544 32.2559999999999 110.08 32.7679999999999 111.616 32.2559999999999S114.688 31.2319999999999 115.2 29.6959999999999L118.272 25.0879999999999C120.32 22.0159999999999 123.392 19.9679999999999 126.976 19.9679999999999H127.488C131.072 19.9679999999999 134.656 22.0159999999999 137.216 25.0879999999999L140.288 29.6959999999999C141.312 31.2319999999999 142.336 31.7439999999999 143.872 32.2559999999999S147.456 32.2559999999999 148.48 31.2319999999999L153.088 27.6479999999999C156.16 25.5999999999999 160.256 25.0879999999999 163.84 26.1119999999999C167.424 27.6479999999999 169.984 30.2079999999999 171.0080000000001 34.3039999999999L172.0320000000001 40.4479999999999C172.5440000000001 41.9839999999999 173.5680000000001 43.5199999999999 175.1040000000001 44.0319999999999C176.6400000000001 45.0559999999999 178.1760000000001 45.0559999999999 179.7120000000001 44.5439999999999L185.3440000000001 43.0079999999999C188.9280000000001 41.9839999999999 192.5120000000001 42.4959999999999 195.5840000000001 44.5439999999999C198.6560000000001 47.1039999999999 200.1920000000001 50.6879999999999 200.1920000000001 54.7839999999999L199.6800000000001 62.4639999999999C199.1680000000001 66.048 201.7280000000001 69.12 205.3120000000001 69.632L211.9680000000001 69.12C215.5520000000001 69.632 218.6240000000001 71.68 220.6720000000001 74.752S222.7200000000001 81.92 221.1840000000001 85.504L218.6240000000001 90.624C217.6000000000001 92.16 217.6000000000001 93.696 218.1120000000001 95.232S219.6480000000001 98.304 221.1840000000001 98.816L226.3040000000001 100.864C229.8880000000001 102.4 232.4480000000001 105.984 232.9600000000001 109.568S232.4480000000001 116.736 229.8880000000001 119.296zM227.84 110.08C227.328 108.032 226.304 105.984 224.256 104.96L219.136 102.912C216.064 101.376 214.016 99.328 212.992 96.256S212.48 90.112 214.016 87.552L216.576 82.432C217.6 80.384 217.6 78.336 216.064 76.288C215.04 74.752 213.504 73.216 211.968 73.216L204.8 74.24C198.144 73.728 193.536 68.096 194.56 61.9519999999999L195.072 56.3199999999999C195.072 54.2719999999999 194.56 52.2239999999999 192.512 50.6879999999999C191.488 50.1759999999999 189.44 49.1519999999999 186.88 49.6639999999999L181.76 51.1999999999999C178.688 52.2239999999999 175.616 51.7119999999999 173.056 50.1759999999999S168.448 46.0799999999999 167.424 43.0079999999999L166.4 36.8639999999999C165.888 34.8159999999999 164.352 33.2799999999999 162.304 32.2559999999999C160.256 31.7439999999999 158.208 31.7439999999999 156.672 32.7679999999999L152.0639999999999 36.3519999999999C149.5039999999999 38.3999999999999 146.4319999999999 38.9119999999999 143.3599999999999 38.3999999999999S137.7279999999999 35.8399999999999 136.1919999999999 33.7919999999999L133.1199999999999 29.6959999999999C132.0959999999999 27.6479999999999 130.0479999999999 26.6239999999999 127.4879999999999 27.1359999999999C125.4399999999999 27.1359999999999 123.9039999999999 28.1599999999999 122.8799999999999 29.6959999999999L119.8079999999999 34.3039999999999C118.2719999999999 36.8639999999999 115.7119999999999 38.3999999999999 112.6399999999999 38.9119999999999H110.5919999999999C108.0319999999999 38.9119999999999 105.9839999999999 37.8879999999999 103.9359999999999 36.3519999999999L99.3279999999999 32.7679999999999C97.7919999999999 31.7439999999999 95.2319999999999 31.2319999999999 93.1839999999999 32.2559999999999C91.1359999999999 32.7679999999999 89.5999999999999 34.8159999999999 89.0879999999999 36.8639999999999L87.5519999999999 42.4959999999999C87.0399999999999 45.5679999999999 84.9919999999999 48.1279999999999 82.4319999999999 49.6639999999999S76.7999999999999 51.7119999999999 73.7279999999999 50.6879999999999L68.0959999999999 49.1519999999999C65.5359999999999 48.1279999999999 63.4879999999999 49.1519999999999 62.4639999999999 50.1759999999999C60.9279999999999 51.7119999999999 59.9039999999999 53.7599999999999 59.9039999999999 55.8079999999999L60.4159999999999 61.4399999999999C60.9279999999999 68.096 56.3199999999999 73.216 50.1759999999999 73.728L45.0559999999999 74.24C43.0079999999999 74.24 40.9599999999999 75.776 39.9359999999999 77.824S38.9119999999999 81.92 39.9359999999999 83.456L42.4959999999999 88.576C43.5199999999999 91.648 44.0319999999999 94.72 43.0079999999999 97.28C41.9839999999999 100.352 39.9359999999999 102.4 36.8639999999999 103.936L31.7439999999999 105.984C29.6959999999999 107.008 28.1599999999999 108.544 28.1599999999999 111.104C27.6479999999999 113.152 28.6719999999999 115.2 30.2079999999999 116.224L34.3039999999999 120.32C36.3519999999999 122.368 37.8879999999999 125.44 37.8879999999999 128.512S36.8639999999999 134.656 34.3039999999999 136.704L29.6959999999999 140.288C28.1599999999999 141.312 27.6479999999999 143.36 28.1599999999999 145.408S29.6959999999999 149.504 31.7439999999999 150.528L36.8639999999999 152.576C39.9359999999999 154.112 41.9839999999999 156.16 43.0079999999999 159.232S43.5199999999999 165.376 41.9839999999999 167.936L39.4239999999999 173.0560000000001C38.3999999999999 175.1040000000001 38.3999999999999 177.1520000000001 39.9359999999999 179.2000000000001C40.9599999999999 180.7360000000001 42.4959999999999 182.2720000000001 44.5439999999999 182.2720000000001H50.6879999999999C53.7599999999999 182.7840000000001 56.8319999999999 183.8080000000001 58.3679999999999 186.3680000000001C60.4159999999999 188.9280000000001 61.4399999999999 191.4880000000001 60.9279999999999 195.0720000000001V199.68C60.9279999999999 201.728 61.4399999999999 203.776 63.4879999999999 205.312C64.5119999999999 205.824 66.5599999999999 207.36 69.1199999999999 206.336L74.7519999999999 204.8C77.8239999999999 203.776 80.8959999999999 204.288 83.4559999999999 205.824S88.0639999999999 209.92 89.0879999999999 212.992L90.1119999999999 219.136C90.6239999999999 221.184 92.1599999999999 222.72 94.2079999999999 223.744C96.2559999999999 224.256 98.3039999999999 224.256 99.8399999999999 223.232L104.4479999999999 219.648C107.0079999999999 217.6 110.0799999999999 217.088 113.1519999999999 217.6S118.7839999999999 220.16 120.3199999999999 222.208L122.8799999999999 226.304C125.4399999999999 229.888 130.5599999999999 229.888 133.1199999999999 226.304L136.1919999999999 221.696C137.7279999999999 219.136 140.2879999999999 217.6 143.3599999999999 217.088S149.5039999999999 217.088 152.0639999999999 219.136L156.672 222.72C158.208 223.744 160.768 224.256 162.816 223.232C164.864 222.72 166.4 220.672 166.912 218.624L168.448 212.992C168.96 209.92 171.008 207.36 173.568 205.824S179.2 203.776 182.272 204.8L187.904 206.336C190.464 207.36 192.512 206.336 193.536 205.312C195.072 203.776 196.096 201.728 196.096 199.68L195.072 194.56C194.56 187.904 199.168 182.784 205.824 182.272L211.456 181.76C213.504 181.76 215.552 180.224 216.576 178.176S217.6 174.08 216.576 172.544L214.016 167.424C212.992 164.352 212.48 161.28 213.504 158.72C214.528 155.648 216.576 153.6 219.648 152.064L224.768 150.016C226.816 148.992 228.352 147.456 228.352 144.896C228.864 142.848 227.84 140.8 226.304 139.776L222.208 135.68C220.16 133.632 218.624 130.56 218.624 127.488S219.648 121.344 222.208 119.296L226.304 115.2C227.328 114.176 228.352 112.128 227.84 110.08zM82.432 178.176C81.408 179.2 81.92 180.736 82.944 181.76C95.744 192.512 111.616 198.144 128 198.144S160.256 192.512 173.056 181.76C174.08 180.736 174.08 179.2 173.568 178.176C173.056 177.664 172.544 177.152 171.52 177.152C171.008 177.152 170.496 177.152 169.984 177.664C157.696 187.904 143.36 193.024 128 193.024S98.304 187.904 86.016 177.664C84.992 176.64 83.456 177.152 82.432 178.176zM173.568 77.824C174.592 76.8 174.08 75.264 173.056 74.24C160.256 63.488 144.384 57.856 128 57.856S95.744 63.488 82.944 74.24C81.92 75.264 81.92 76.8 82.432 77.824C83.456 78.848 84.992 78.848 86.016 78.336C98.304 68.096 112.64 62.976 128 62.976S157.696 68.096 169.984 78.336C171.008 79.36 172.544 78.848 173.568 77.824zM87.04 91.136L74.752 137.216C73.728 140.8 73.216 143.872 72.704 146.432C73.216 137.728 73.216 126.976 73.216 113.664V91.136H64V164.352H75.264L86.016 123.904C87.552 118.272 88.064 114.176 89.088 111.104C88.576 120.32 88.576 131.072 88.576 142.848V164.864H97.792V91.648H87.04zM118.272 155.648V134.656H134.656V125.44H118.272V100.352H136.704L135.68 91.136H108.544V164.352H135.68V155.136H118.272zM186.88 164.352H196.608L185.856 91.136H175.616C173.568 108.032 169.984 131.584 168.448 145.408C166.912 131.072 163.328 107.52 160.768 91.136H150.528L140.288 164.352H150.528C152.576 147.456 155.136 120.832 155.648 108.032C157.184 121.856 160.768 147.968 163.328 164.352H173.056C175.104 147.456 179.2 123.392 180.224 108.032C181.76 121.856 184.832 147.456 186.88 164.352z" />
    <glyph glyph-name="or9k"
      unicode="&#xEA09;"
      horiz-adv-x="256" d="M40.96 162.304V164.864C40.96 176.64 44.032 194.048 65.536 194.048C82.944 194.048 89.6 182.784 89.6 165.376V159.232C89.6 143.872 84.992 137.728 77.824 134.656C87.552 131.584 93.184 123.904 93.184 107.52V96.256C93.184 75.776 87.04 61.44 66.048 61.44C46.592 61.44 39.424 73.216 39.424 90.624V94.208H51.2V90.624C51.2 80.384 55.296 72.704 65.536 72.704C76.288 72.704 79.872 79.872 79.872 95.2319999999999V107.52C79.872 123.904 73.728 129.024 61.952 129.024H56.32V139.776H61.952C72.192 139.776 77.312 143.36 77.312 158.208V165.376C77.312 175.616 74.752 183.296 65.024 183.296C54.784 183.296 52.736 175.104 52.736 165.888V162.304zM154.112 193.024V183.296C137.728 150.528 124.928 111.104 119.808 62.976H107.008C111.616 104.448 124.416 149.504 141.312 181.248H101.888V192.512H154.112zM211.456 181.76H179.2C178.176 170.496 177.152 151.552 176.128 141.312C178.688 145.92 184.832 149.504 192.512 149.504C209.92 149.504 215.04 136.704 215.04 115.2V99.84C215.04 78.848 209.92 62.464 187.392 62.464C166.912 62.464 160.768 76.8 160.768 93.184V95.232H174.08V92.16C174.08 82.944 177.152 73.728 187.904 73.728C200.192 73.728 202.24 83.968 202.24 98.304V115.7119999999999C202.24 130.56 200.192 139.2639999999999 188.928 139.2639999999999C180.224 139.2639999999999 176.128 134.1439999999999 174.08 124.928L162.816 125.952C164.864 143.872 167.424 182.2719999999999 167.936 194.56H212.992z" />
    <glyph glyph-name="or18k-9k"
      unicode="&#xEA0A;"
      horiz-adv-x="256" d="M46.592 111.616L95.744 111.104V102.912C81.92 83.968 70.656 56.832 65.024 32.256H54.784C59.904 58.368 73.728 86.016 85.504 102.912H46.592zM124.928 84.48C116.736 84.48 112.128 81.92 109.056 78.336C110.08 83.456 111.616 96.768 112.128 102.912H144.384L145.408 111.104H104.448C102.912 98.816 100.352 77.824 98.816 68.608L107.52 67.072C109.568 72.704 114.176 76.8 122.368 76.8C132.608 76.8 137.216 69.632 137.216 58.88C137.216 47.616 133.12 39.424 121.856 39.424C112.128 39.424 108.032 45.056 106.496 52.224H96.768C98.816 38.4 107.52 31.232 121.856 31.232C140.288 31.232 147.968 43.52 147.968 58.88S139.776 84.48 124.928 84.48zM204.288 73.728C204.288 52.224 199.68 31.232 179.2 31.232C157.696 31.232 153.6 53.248 153.6 73.216C153.6 93.696 160.256 112.128 179.2 112.128C199.168 112.128 204.288 94.208 204.288 73.728zM194.56 73.728C194.56 90.624 190.976 104.448 179.2 104.448C166.912 104.448 163.84 90.112 163.84 73.728C163.84 54.784 167.424 39.424 179.2 39.424C192 39.424 194.56 54.784 194.56 73.728zM76.288 152.064C66.56 152.064 61.952 158.208 60.416 165.376H50.688C51.712 154.112 58.88 143.872 75.776 143.872C94.72 143.872 101.888 156.16 101.888 168.448C101.888 180.224 95.232 185.856 88.064 188.416C92.672 189.952 98.304 195.584 98.304 204.8C98.304 215.552 91.136 224.768 75.776 224.768C59.904 224.768 53.76 214.528 52.224 203.776V203.264H61.952C63.488 211.968 68.096 216.576 76.288 216.576S89.6 211.968 89.6 203.776C89.6 195.072 84.48 190.976 74.752 190.976H69.632V183.296H74.752C84.992 183.296 92.16 179.712 92.16 167.936C92.16 160.256 88.064 152.064 76.288 152.064zM110.592 144.896H120.832C126.464 169.472 137.728 196.608 151.552 215.552V223.744H102.4V215.552H141.312C129.536 198.656 115.712 171.008 110.592 144.896zM177.664 152.064C167.936 152.064 163.84 157.696 162.304 164.864H152.576C154.624 151.04 163.328 143.872 177.664 143.872C196.096 143.872 203.776 156.16 203.776 171.52S195.584 197.12 180.736 197.12C172.544 197.12 167.936 194.56 164.864 190.976C165.888 196.096 167.424 209.408 167.936 215.552H200.192L201.216 223.744H160.256C158.72 211.456 156.16 190.464 154.624 181.248L163.328 179.712C165.376 185.344 169.984 189.44 178.1759999999999 189.44C188.416 189.44 193.024 182.272 193.024 171.52C193.024 160.256 188.928 152.064 177.6639999999999 152.064zM217.6 130.56H38.4C36.864 130.56 35.84 129.536 35.84 128S36.864 125.44 38.4 125.44H217.6C219.136 125.44 220.16 126.464 220.16 128S219.136 130.56 217.6 130.56z" />
    <glyph glyph-name="or18k"
      unicode="&#xEA0B;"
      horiz-adv-x="256" d="M87.552 193.024V183.296C71.168 150.528 58.368 111.104 53.248 62.976H39.936C44.544 104.448 57.344 149.504 74.24 181.248H34.816V192.512H87.552zM144.896 181.76H112.64C111.616 170.496 110.592 151.552 109.568 141.312C112.128 145.92 118.272 149.504 125.952 149.504C143.36 149.504 148.48 136.704 148.48 115.2V99.84C148.48 78.848 143.36 62.464 120.832 62.464C100.352 62.464 94.208 76.8 94.208 93.184V95.232H107.008V92.16C107.008 82.944 110.08 73.728 120.832 73.728C133.12 73.728 135.168 83.968 135.168 98.304V115.7119999999999C135.168 130.56 133.12 139.2639999999999 121.856 139.2639999999999C113.152 139.2639999999999 109.056 134.1439999999999 107.008 124.928L95.744 125.952C97.792 143.872 100.352 182.2719999999999 100.864 194.56H145.92zM215.04 161.792V94.208C215.04 71.68 205.824 61.44 187.904 61.44C171.52 61.44 161.792 71.68 161.792 94.208V161.28C161.792 186.368 173.568 194.56 188.928 194.56C203.776 194.56 215.04 186.368 215.04 161.792zM174.592 162.304V93.696C174.592 79.872 179.2 73.728 188.928 73.728C197.632 73.728 202.752 78.336 202.752 94.208V162.304C202.752 177.152 197.12 182.272 188.928 182.272C180.224 182.272 174.592 178.176 174.592 162.304z" />
    <glyph glyph-name="oxyde"
      unicode="&#xEA0C;"
      horiz-adv-x="256" d="M190.464 209.408H65.536L19.968 162.816L128 45.568L236.032 162.816zM85.504 165.376L70.144 204.288H185.344L169.984 165.376zM168.448 160.256L128 56.32L87.552 160.256zM79.872 165.376H29.696L65.536 202.24zM81.92 160.256L120.832 60.928L29.184 160.256zM174.0800000000001 160.256H226.8160000000001L135.168 60.928zM176.1280000000001 165.376L190.4640000000001 202.24L226.3040000000001 165.376z" />
    <glyph glyph-name="palmares"
      unicode="&#xEA0D;"
      horiz-adv-x="256" d="M217.6 110.08C219.136 111.104 220.16 112.128 221.696 113.152C228.864 120.32 226.816 130.048 226.304 130.56L225.792 132.608H223.744C223.232 132.608 215.04 132.608 207.872 125.44C206.336 123.904 205.312 121.856 204.288 120.32C204.8 123.392 204.8 125.952 205.312 128C207.872 129.536 212.48 133.632 214.016 140.8C215.552 150.528 208.896 157.696 208.896 157.696L207.36 159.232L205.824 158.208C205.312 158.208 198.144 153.6 196.608 143.872C195.072 135.68 199.168 130.56 200.704 128.512C200.704 123.904 199.68 110.08 189.44 96.256C189.952 98.304 190.464 100.352 190.464 102.912C190.464 105.984 189.952 108.544 188.928 111.104C189.952 110.08 190.976 109.568 191.488 109.568L193.024 108.544L194.56 109.568C195.072 109.568 201.216 115.712 200.192 125.952C198.656 135.68 191.488 140.288 191.488 140.288L189.44 141.312L187.904 140.288C187.392 139.776 180.224 133.632 181.76 123.392C181.76 122.368 182.272 121.344 182.272 120.32L180.736 119.296C180.224 119.296 172.032 113.152 172.544 103.424V101.888C171.008 104.448 169.984 106.496 169.984 106.496L168.448 108.032L166.4 107.008C165.888 107.008 159.232 102.4 157.696 93.696L157.184 94.72L155.136 94.208C154.624 94.208 144.8959999999999 91.648 141.3119999999999 82.432S142.3359999999999 65.536 142.3359999999999 65.536L142.8479999999999 64.5119999999999C140.2879999999999 63.4879999999999 137.7279999999999 62.9759999999999 134.6559999999999 61.9519999999999C133.1199999999999 61.4399999999999 132.6079999999999 60.4159999999999 133.1199999999999 58.8799999999999C133.6319999999999 57.8559999999999 134.6559999999999 56.8319999999999 135.6799999999999 56.8319999999999H136.1919999999999C140.7999999999999 57.8559999999999 144.8959999999999 59.3919999999999 148.9919999999999 60.9279999999999C148.9919999999999 61.4399999999999 148.4799999999999 60.9279999999999 148.4799999999999 60.9279999999999L147.4559999999999 59.3919999999999L148.4799999999999 57.8559999999999C148.4799999999999 57.3439999999999 153.0879999999999 49.6639999999999 162.8159999999999 48.6399999999999H164.8639999999999C173.5679999999999 48.6399999999999 178.6879999999999 54.2719999999999 179.1999999999999 54.7839999999999L180.2239999999999 56.3199999999999L179.1999999999999 57.8559999999999S178.6879999999999 58.8799999999999 177.1519999999999 60.4159999999999C179.1999999999999 59.3919999999999 181.7599999999999 58.8799999999999 184.3199999999999 58.8799999999999C194.048 58.8799999999999 200.192 66.56 200.192 67.072L201.216 68.608L199.68 70.144S198.144 71.68 196.096 72.704C197.632 72.704 199.168 73.216 200.704 73.216C209.92 76.288 213.504 84.992 213.504 85.504L214.528 87.552L212.48 88.576L210.432 89.6C211.968 90.112 213.504 90.624 214.528 91.136C223.232 95.744 224.256 105.472 224.256 105.984V108.032L222.208 108.544C222.208 109.568 220.672 110.08 217.6 110.08zM212.48 121.856C216.064 125.44 219.648 126.464 222.208 126.976C222.208 124.416 221.696 120.32 218.624 116.736C215.04 113.152 210.944 112.64 208.384 112.128C208.384 114.688 208.896 118.784 212.48 121.856zM203.264 109.568L203.776 108.032H206.336S205.824 108.032 205.824 107.52C197.12 102.912 196.608 94.208 196.096 93.696V91.648H196.608H195.584C193.024 91.136 191.488 90.112 189.44 88.576C196.608 97.28 200.704 105.472 203.264 113.152zM183.808 76.8C180.224 76.8 177.152 76.288 174.592 74.752C178.176 77.312 181.76 79.872 184.32 82.944C183.296 80.896 182.784 79.872 182.784 79.36L182.272 77.824zM201.728 142.848C202.752 147.456 205.312 151.04 206.848 152.576C208.384 150.528 210.432 146.432 209.408 141.824C208.384 136.704 205.824 134.144 203.776 133.12C202.752 134.656 200.704 138.24 201.728 142.848zM189.44 134.656C190.976 133.12 193.536 130.048 194.56 124.928C195.072 120.32 193.536 116.736 192 114.688C189.952 116.224 187.392 119.296 186.88 123.904C185.856 129.024 187.904 132.608 189.44 134.656zM181.76 113.664C183.296 111.616 185.344 108.032 185.344 102.912C185.344 98.304 183.296 95.232 181.76 93.696C180.224 95.232 177.664 98.816 177.664 103.424C177.152 108.032 180.224 111.616 181.76 113.664zM180.224 88.064L181.248 87.04C177.664 83.456 173.056 79.872 167.936 76.288C170.496 77.824 174.592 82.432 175.104 89.6V93.696C177.152 90.112 180.224 88.064 180.224 88.064zM167.424 101.376C168.448 99.328 170.496 95.232 169.984 90.624S167.424 82.944 165.888 81.408C164.352 83.456 162.304 86.528 162.304 91.648C162.816 96.256 165.376 99.328 167.424 101.376zM146.432 80.896C147.968 85.5040000000001 151.552 87.5520000000001 154.112 88.5760000000001C154.624 86.0160000000001 155.136 81.9200000000001 153.6 77.312S148.48 70.656 146.432 69.632C145.408 72.192 144.384 76.288 146.432 80.896zM158.208 75.776C158.72 77.824 159.232 79.872 159.744 81.4080000000001C161.792 77.824 163.84 75.776 164.352 75.776L165.888 74.752C162.304 72.704 158.208 70.656 154.112 68.608C155.136 70.656 156.672 72.704 158.208 75.776zM163.328 53.7600000000001C158.72 54.2720000000001 155.648 57.3440000000001 154.112 58.8800000000001C156.16 60.4160000000001 159.232 61.9520000000001 163.84 61.4400000000001C168.96 60.4160000000001 172.032 58.3680000000001 173.568 56.8320000000001C171.52 55.2960000000001 167.936 53.2480000000001 163.328 53.7600000000001zM164.864 66.5600000000001C163.328 66.5600000000001 162.304 67.0720000000001 161.28 67.0720000000001C164.864 69.1200000000001 168.448 70.6560000000001 171.52 72.7040000000001C169.984 71.1680000000001 168.96 69.6320000000001 168.448 69.6320000000001L167.424 68.0960000000001L168.448 66.5600000000001L169.984 65.0240000000001C168.448 65.5360000000001 166.912 66.0480000000001 164.864 66.5600000000001zM184.32 64.0000000000001C179.712 64.0000000000001 175.616 66.5600000000001 174.08 68.0960000000001C175.616 69.6320000000001 179.2 71.6800000000001 183.808 71.6800000000001C188.416 71.6800000000001 192.512 69.6320000000001 194.56 68.0960000000001C192.512 66.5600000000001 188.928 64.0000000000001 184.32 64.0000000000001zM199.68 78.8480000000001C195.072 77.3120000000001 190.976 78.8480000000001 188.928 79.8720000000001C189.952 81.9200000000001 192.512 84.4800000000001 197.12 86.0160000000001C201.728 87.0400000000001 205.824 86.5280000000001 208.384 85.5040000000001C206.336 83.4560000000001 203.776 79.8720000000001 199.68 78.8480000000001zM212.48 96.2560000000001C208.384 94.2080000000001 204.288 94.2080000000001 201.728 94.7200000000001C202.24 96.7680000000001 204.288 100.3520000000001 208.384 102.4000000000001C212.48 104.9600000000001 216.576 104.9600000000001 219.136 104.4480000000001C218.112 102.4000000000001 216.576 98.8160000000001 212.48 96.2560000000001zM119.296 62.4640000000001C116.224 63.4880000000001 113.664 64.0000000000001 111.104 65.0240000000001L111.616 66.0480000000001C111.616 66.5600000000001 116.224 74.2400000000001 112.64 82.9440000000001C109.056 92.1600000000001 99.328 94.7200000000001 98.816 94.7200000000001L97.28 95.2320000000001L96.256 93.1840000000001C94.72 102.4000000000001 87.552 106.4960000000001 87.04 106.4960000000001L85.504 107.5200000000001L83.968 105.9840000000001S82.944 104.9600000000001 82.432 103.4240000000001C82.432 113.1520000000001 74.752 118.7840000000001 74.24 118.7840000000001L72.704 119.8080000000001L72.192 119.2960000000001C72.704 120.3200000000001 72.704 121.3440000000001 72.704 122.3680000000001C74.24 133.1200000000001 67.072 139.2640000000001 66.56 139.7760000000001L65.024 141.3120000000001L63.488 140.2880000000001C62.976 140.2880000000001 56.32 135.1680000000001 54.784 125.4400000000001C54.272 122.8800000000001 54.272 120.8320000000001 54.784 118.7840000000001C53.76 122.3680000000001 53.76 125.9520000000001 53.76 128.0000000000001C55.296 130.0480000000001 59.392 135.1680000000001 57.856 143.3600000000001C56.32 153.0880000000001 48.64 157.6960000000001 48.64 157.6960000000001L46.592 158.7200000000001L45.056 157.1840000000001C44.544 156.6720000000001 37.888 150.0160000000001 39.936 140.8000000000001C41.472 133.1200000000001 46.08 129.0240000000001 48.64 127.4880000000001C48.64 125.4400000000001 48.64 123.3920000000001 49.152 120.3200000000001C48.128 121.8560000000001 47.104 123.9040000000001 45.568 125.4400000000001C38.912 132.0960000000001 30.208 132.0960000000001 29.696 132.0960000000001H28.16L27.648 130.0480000000001C27.648 129.5360000000001 25.6 119.8080000000001 32.256 112.6400000000001C33.792 111.1040000000001 34.816 110.0800000000001 36.352 109.5680000000001C33.792 109.5680000000001 31.744 109.0560000000001 31.744 108.5440000000001L29.696 108.0320000000001V105.9840000000001C29.696 105.4720000000001 30.72 95.7440000000001 39.424 91.1360000000001C40.96 90.1120000000001 42.496 89.6000000000001 44.032 89.6000000000001L41.984 88.5760000000001L39.936 87.5520000000001L40.96 86.5280000000001C40.96 86.0160000000001 44.032 76.2880000000001 53.76 74.2400000000001C55.296 73.7280000000001 56.832 73.7280000000001 58.368 73.2160000000001C55.808 71.6800000000001 54.784 70.1440000000001 54.272 70.1440000000001L53.248 68.6080000000001L54.272 67.0720000000001C54.272 66.5600000000001 60.416 58.8800000000001 70.144 58.8800000000001C72.192 58.8800000000001 73.728 59.3920000000001 75.264 59.9040000000001C74.752 59.3920000000001 74.24 58.8800000000001 74.24 58.3680000000001L73.728 56.3200000000001L75.264 54.7840000000001C75.776 54.2720000000001 80.896 48.64 89.088 48.64C90.112 48.64 91.136 48.64 92.16 49.152C101.888 50.688 105.984 58.3680000000001 106.496 58.8800000000001L107.52 60.4160000000001L106.496 61.9520000000001L105.472 62.9760000000001C109.568 61.4400000000001 114.176 59.9040000000001 119.296 58.3680000000001H119.808C120.832 58.3680000000001 121.856 58.8800000000001 122.368 60.4160000000001C121.856 60.4160000000001 120.832 61.9520000000001 119.296 62.4640000000001zM100.352 89.0880000000001C102.912 88.0640000000001 106.496 85.5040000000001 108.032 81.4080000000001S109.056 73.2160000000001 108.032 70.6560000000001C105.984 71.6800000000001 102.912 73.7280000000001 100.864 78.3360000000001C99.328 81.9200000000001 99.84 86.5280000000001 100.352 89.0880000000001zM95.232 81.9200000000001C95.232 79.8720000000001 95.744 77.8240000000001 96.768 75.7760000000001C97.792 72.7040000000001 99.84 70.1440000000001 101.888 68.6080000000001C97.28 70.6560000000001 93.696 72.7040000000001 90.112 74.7520000000001L91.136 75.7760000000001C90.624 75.7760000000001 93.184 78.3360000000001 95.232 81.9200000000001zM86.528 100.8640000000001C88.576 99.3280000000001 91.136 95.7440000000001 91.648 91.1360000000001S89.6 82.9440000000001 88.064 80.8960000000001C86.528 82.4320000000001 83.968 84.9920000000001 83.968 90.1120000000001C83.456 94.7200000000001 85.504 98.8160000000001 86.528 100.8640000000001zM83.456 78.3360000000001C78.848 81.4080000000001 75.264 84.4800000000001 72.192 88.0640000000001L73.728 87.0400000000001L75.264 88.0640000000001S77.312 89.6000000000001 79.36 92.6720000000001V89.6000000000001C79.36 84.4800000000001 81.408 80.8960000000001 83.456 78.3360000000001zM72.704 113.6640000000001C74.752 111.6160000000001 77.312 108.0320000000001 77.312 103.4240000000001C77.312 98.3040000000001 74.752 95.2320000000001 73.216 93.6960000000001C71.68 95.2320000000001 69.632 98.3040000000001 69.632 102.9120000000001C69.632 108.0320000000001 71.68 111.6160000000001 72.704 113.6640000000001zM59.904 124.4160000000001C60.928 129.0240000000001 63.488 132.6080000000001 65.024 134.6560000000001C66.56 132.6080000000001 68.608 129.0240000000001 67.584 123.9040000000001C67.072 119.2960000000001 64 116.2240000000001 62.464 114.6880000000001C60.928 116.2240000000001 58.88 119.8080000000001 59.904 124.4160000000001zM60.416 109.0560000000001L61.952 108.0320000000001L63.488 109.0560000000001S64.512 109.5680000000001 66.048 111.1040000000001C65.024 109.0560000000001 64.512 106.4960000000001 64.512 102.9120000000001C64.512 98.8160000000001 65.536 95.7440000000001 67.072 93.1840000000001C59.904 102.4000000000001 56.32 111.6160000000001 54.784 118.7840000000001C56.32 112.6400000000001 59.904 109.5680000000001 60.416 109.0560000000001zM45.056 141.8240000000001C44.032 146.4320000000001 46.08 150.0160000000001 47.616 152.0640000000001C49.152 150.5280000000001 52.224 147.4560000000001 52.736 142.3360000000001C53.76 137.7280000000001 51.712 134.1440000000001 50.688 132.0960000000001C48.64 133.6320000000001 46.08 136.7040000000001 45.056 141.8240000000001zM50.688 107.52L51.2 109.056V111.616C53.248 104.96 57.344 96.768 63.488 89.088C62.464 89.6 60.928 90.624 59.392 91.136H57.856H58.368V93.184C58.368 93.696 57.856 102.4 49.152 107.008C49.152 107.008 48.64 107.008 48.64 107.52H49.152zM32.256 126.976C34.816 126.464 38.4 125.44 41.984 121.856S46.08 114.688 46.08 112.64C43.52 112.64 39.424 113.664 35.84 117.248C32.768 120.32 32.256 124.416 32.256 126.976zM35.84 104.96C38.4 105.472 41.984 104.96 46.592 102.4C50.688 100.352 52.224 96.768 53.248 94.72C50.688 94.208 47.104 93.696 42.496 96.256C38.4 98.816 36.352 102.4 35.84 104.96zM55.296 78.848C50.688 79.872 48.128 83.456 46.592 85.504C49.152 86.528 53.248 87.04 57.856 86.016C62.464 84.48 65.024 81.408 66.048 79.872C64 78.848 59.904 77.312 55.296 78.848zM60.416 68.096C62.464 69.632 66.048 71.68 70.656 71.168C75.776 71.168 78.848 69.12 80.384 67.584C78.848 66.048 75.264 63.488 70.656 63.488S62.464 66.048 60.416 68.096zM90.624 53.76C86.528 52.736 82.432 54.784 80.384 56.32C82.432 57.856 85.504 60.416 89.6 61.44C94.208 61.952 97.792 60.416 99.84 58.88C98.304 57.344 95.744 54.784 90.624 53.76zM89.088 66.56C88.064 66.56 86.528 66.048 85.504 65.536C85.504 66.048 86.016 66.048 86.016 66.048L87.04 67.584L86.016 69.12C86.016 69.632 80.896 76.288 70.656 76.288H70.144C70.656 76.8 70.656 76.8 71.168 76.8L72.704 77.824L72.192 79.36S72.192 80.384 71.68 80.896C77.312 75.776 84.992 70.656 94.208 66.048C92.16 66.56 90.624 66.56 89.088 66.56zM140.288 101.888V174.592H122.88L121.856 174.08C119.808 171.52 114.688 167.424 107.008 166.4L104.96 165.888V148.48H107.52C109.056 148.48 112.128 148.48 115.2 148.992V102.4H140.288zM110.08 153.6V161.792C117.248 163.328 122.368 166.912 124.928 169.472H135.168V107.008H120.32V155.136L117.248 154.624C115.2 154.112 112.64 153.6 110.08 153.6zM56.832 159.744C68.608 188.928 96.256 207.872 128 207.872C159.232 207.872 186.88 188.928 199.168 159.744C199.68 158.208 199.168 157.184 197.632 156.16C196.096 155.648 195.072 156.16 194.048 157.696C182.784 184.832 156.672 202.752 128 202.752C98.816 202.752 72.192 184.832 61.952 157.696C61.44 156.672 60.416 156.16 59.392 156.16H58.368C57.344 156.672 56.32 158.208 56.832 159.744z" />
    <glyph glyph-name="pendentif"
      unicode="&#xEA0E;"
      horiz-adv-x="256" d="M160.256 105.472L136.704 129.024C132.096 133.632 124.928 133.632 120.32 129.024L96.768 105.472C92.16 100.864 92.16 93.696 96.768 89.088L120.32 65.536C122.368 63.488 124.928 61.952 128 61.952H128.512C131.584 61.952 134.656 62.976 136.704 65.536L160.256 89.088C164.864 93.184 164.864 100.864 160.256 105.472zM156.16 92.672L132.608 69.12C131.072 67.584 129.536 67.072 127.488 67.072C125.952 67.072 124.416 67.584 123.392 68.608L99.84 92.16C97.28 94.72 97.28 98.816 99.84 101.376L123.392 124.928C124.928 126.464 126.464 126.976 128 126.976S131.072 126.464 132.608 124.928L156.16 101.376C158.72 98.816 158.72 95.232 156.16 92.672zM172.032 71.68C180.736 87.04 180.736 106.496 172.032 121.856C176.128 124.416 178.688 128.512 178.688 133.632C178.688 141.312 172.544 147.456 164.864 147.456C159.744 147.456 155.648 144.896 153.088 140.8C149.504 142.848 145.408 144.896 141.312 145.92L150.016 191.488C158.72 195.584 167.424 200.704 175.616 205.824C176.64 206.336 177.152 208.384 176.128 209.408C175.616 210.432 174.08 210.944 172.544 209.92C164.352 204.288 155.136 199.68 146.944 195.584C134.656 197.12 121.856 197.12 109.056 195.584C106.496 197.12 96.768 202.752 86.016 209.92C84.992 210.944 83.456 210.432 82.432 209.408S81.92 206.848 82.944 205.824C93.184 199.168 101.888 193.536 105.472 192L114.176 145.92C110.08 144.896 106.496 143.36 102.912 141.312C100.352 145.408 96.256 147.968 91.136 147.968C83.456 147.968 77.312 141.824 77.312 134.144C77.312 129.024 79.872 124.928 83.968 122.368C75.264 107.008 75.264 87.552 83.968 72.192C79.872 69.632 77.312 65.536 77.312 60.416C77.312 52.736 83.456 46.592 91.136 46.592C96.256 46.592 100.352 49.152 102.912 53.248C110.592 48.64 119.296 46.592 128 46.592S145.408 49.152 153.088 53.248C155.648 49.152 159.744 46.592 164.864 46.592C172.544 46.592 178.688 52.736 178.688 60.416C178.688 65.024 176.128 69.12 172.032 71.68zM164.864 142.336C169.472 142.336 173.568 138.24 173.568 133.632S169.472 124.928 164.864 124.928S156.16 129.024 156.16 133.632S160.256 142.336 164.864 142.336zM111.104 190.976C122.368 192 133.632 192 144.384 190.976L136.192 146.944C130.56 147.968 124.928 147.968 119.296 146.944zM91.136 142.336C95.744 142.336 99.84 138.24 99.84 133.632S95.744 124.928 91.136 124.928S82.432 129.024 82.432 133.632S86.528 142.336 91.136 142.336zM91.136 51.2C86.528 51.2 82.432 55.296 82.432 59.904S86.528 68.608 91.136 68.608S99.84 64.512 99.84 59.904S95.744 51.2 91.136 51.2zM104.96 57.856V59.904C104.96 67.584 98.816 73.728 91.136 73.728H89.088C80.384 88.064 80.384 105.984 89.088 120.32H91.136C98.816 120.32 104.96 126.464 104.96 134.144V136.192C119.296 144.896 137.216 144.896 151.552 136.192V134.144C151.552 126.464 157.696 120.32 165.376 120.32H167.424C176.1280000000001 105.984 176.1280000000001 88.064 167.424 73.728H165.376C157.696 73.728 151.552 67.584 151.552 59.904V57.856C136.704 49.152 119.296 49.152 104.96 57.856zM164.864 51.2C160.256 51.2 156.16 55.296 156.16 59.904S160.256 68.608 164.864 68.608S173.568 64.512 173.568 59.904S169.472 51.2 164.864 51.2z" />
    <glyph glyph-name="perle"
      unicode="&#xEA0F;"
      horiz-adv-x="256" d="M128 39.424C79.36 39.424 39.424 79.36 39.424 128S79.36 216.576 128 216.576S216.576 176.64 216.576 128S176.64 39.424 128 39.424zM128 211.456C81.92 211.456 44.544 174.08 44.544 128S81.92 44.544 128 44.544S211.456 81.92 211.456 128S174.08 211.456 128 211.456zM161.792 70.144C170.496 75.264 177.152 81.408 181.248 87.552C186.368 94.208 190.464 101.888 192.512 110.592C193.024 112.128 192 113.152 190.464 113.664S187.904 113.152 187.392 111.616C185.344 103.936 181.76 96.768 177.152 90.624C173.056 84.48 166.912 79.36 159.232 74.24C158.208 73.728 157.696 72.192 158.208 70.656C158.72 69.632 159.744 69.632 160.256 69.632S161.28 69.632 161.792 70.144z" />
    <glyph glyph-name="piercing"
      unicode="&#xEA10;"
      horiz-adv-x="256" d="M216.064 186.368C216.064 202.752 202.752 216.064 186.368 216.064S157.184 203.264 156.672 186.88L153.6 189.952C148.48 195.072 140.8 195.072 135.68 189.952L123.904 178.176L143.36 158.72L96.768 112.64L77.312 132.096L65.536 120.32C62.976 117.76 61.952 114.688 61.952 111.104S63.488 104.448 65.536 101.888L69.12 98.304C52.736 97.792 39.936 84.992 39.936 68.608S53.248 38.912 69.632 38.912S98.816 51.712 99.328 68.096L102.4 65.024C104.96 62.464 108.032 61.44 111.616 61.44C114.688 61.44 118.272 62.464 120.832 65.024L132.608 76.8L112.128 97.28L158.72 143.872L179.2 123.392L190.976 135.168C196.096 140.288 196.096 147.968 190.976 153.088L187.392 156.672C203.2640000000001 157.184 216.064 169.984 216.064 186.368zM94.208 69.632C94.208 56.32 82.944 45.056 69.632 45.056S45.056 56.32 45.056 69.632S56.32 94.208 69.632 94.208C71.168 94.208 73.216 94.208 74.752 93.696L93.696 74.752C94.208 73.216 94.208 71.168 94.208 69.632zM124.416 77.824L116.736 70.144C113.664 67.072 109.056 67.072 105.984 70.144L69.632 106.496C68.096 108.032 67.072 110.08 67.072 111.616C67.072 113.664 68.096 115.712 69.632 116.736L77.312 124.416zM108.544 101.376L100.864 109.056L146.944 155.136L154.624 147.456zM186.368 139.264L178.688 131.584L131.584 178.688L139.264 186.368C142.336 189.44 146.944 189.44 150.016 186.368L186.368 150.016C189.952 146.432 189.952 142.336 186.368 139.264zM186.368 161.792C184.832 161.792 182.784 161.792 181.248 162.304L162.304 181.248C161.792 182.784 161.792 184.832 161.792 186.368C161.792 199.68 173.056 210.944 186.368 210.944S210.944 199.68 210.944 186.368S199.68 161.792 186.368 161.792z" />
    <glyph glyph-name="platine"
      unicode="&#xEA11;"
      horiz-adv-x="256" d="M48.128 90.624V89.6C48.128 77.824 52.736 72.192 60.416 72.192C70.656 72.192 74.24 78.336 74.24 100.352V124.928C71.68 118.784 66.56 114.688 56.832 114.688C40.448 114.688 34.816 126.976 34.816 144.896V163.84C34.816 182.784 43.008 194.56 60.928 194.56C77.312 194.56 86.528 184.832 86.528 163.328V103.936C86.528 77.824 83.968 61.44 60.416 61.44C40.96 61.44 35.84 75.264 35.84 90.112V90.624zM47.104 165.376V145.408C47.104 136.192 49.152 126.464 59.904 126.464C71.68 126.464 74.24 137.216 74.24 150.528V164.864C74.24 177.664 70.656 183.808 60.928 183.808C51.712 183.808 47.104 178.176 47.104 165.376zM150.016 181.76H117.76C116.736 170.4960000000001 115.712 151.552 114.688 141.312C117.248 145.92 123.392 149.504 131.072 149.504C148.48 149.504 153.6 136.704 153.6 115.2V99.84C153.6 78.848 148.48 62.464 125.952 62.464C105.472 62.464 99.328 76.8 99.328 93.184V95.232H112.128V92.16C112.128 82.944 115.2 73.728 125.952 73.728C138.24 73.728 140.288 83.968 140.288 98.304V115.712C140.288 130.56 138.24 139.264 126.976 139.264C118.272 139.264 114.176 134.144 112.128 124.928L100.864 125.952C102.912 143.872 105.472 182.272 105.984 194.56H151.04zM220.16 161.792V94.208C220.16 71.68 210.944 61.44 193.024 61.44C176.64 61.44 166.912 71.68 166.912 94.208V161.28C166.912 186.368 178.688 194.56 194.048 194.56C208.896 194.56 220.16 186.368 220.16 161.792zM179.712 162.304V93.696C179.712 79.872 184.32 73.728 194.048 73.728C202.752 73.728 207.872 78.336 207.872 94.208V162.304C207.872 177.152 202.24 182.272 194.048 182.272C185.344 182.272 179.712 178.176 179.712 162.304z" />
    <glyph glyph-name="boucles"
      unicode="&#xEA13;"
      horiz-adv-x="256" d="M162.304 183.296C171.52 183.296 171.52 195.584 171.52 200.704S175.104 211.456 179.712 211.456C183.808 211.456 187.904 208.384 187.904 203.264C187.904 197.632 185.344 195.072 182.272 192C179.712 188.928 176.64 186.368 176.64 181.248V175.104C171.008 174.08 166.912 169.472 166.912 163.328C166.912 156.672 172.032 151.552 178.688 151.552S190.464 156.672 190.464 163.328C190.464 168.96 186.88 173.056 181.76 174.592V181.248C181.76 183.808 183.296 185.856 185.856 188.416C188.928 192 193.024 196.096 193.024 203.264S186.88 216.576 179.712 216.576C172.032 216.576 166.4 208.384 166.4 200.704C166.4 192 165.376 188.416 162.304 188.416C160.768 188.416 159.744 187.392 159.744 185.856S160.768 183.296 162.304 183.296zM185.344 163.328C185.344 159.744 182.272 156.672 178.688 156.672S172.032 159.744 172.032 163.328S175.104 169.984 178.688 169.984S185.344 166.912 185.344 163.328zM180.224 57.344C179.712 58.88 180.224 59.904 181.76 60.928C186.88 62.976 189.952 69.12 189.952 73.216C189.952 74.752 190.976 75.776 192.512 75.776S195.072 74.752 195.072 73.216C195.072 67.072 190.976 58.88 183.808 55.808H182.784C181.76 55.808 180.736 56.32 180.224 57.344zM187.904 119.296C192 122.368 194.56 126.976 194.56 132.096C194.56 140.8 187.392 147.968 178.688 147.968S162.816 140.8 162.816 132.096S169.984 116.224 178.688 116.224C180.224 116.224 181.76 116.736 183.296 117.248C193.536 103.424 204.8 84.48 204.8 72.192C204.8 57.856 192.512 45.568 178.176 45.568C163.328 45.568 151.552 57.344 151.552 72.192C151.552 79.872 156.672 91.648 165.888 106.496C166.4 107.52 166.4 109.056 164.864 110.08C163.84 110.592 162.304 110.592 161.28 109.056C151.04 93.184 145.92 80.384 145.92 71.68C145.92 54.272 160.256 39.936 177.664 39.936S209.408 54.272 209.408 71.68C209.92 88.064 194.56 110.592 187.904 119.296zM167.936 132.096C167.936 138.24 172.544 142.848 178.688 142.848S189.44 138.24 189.44 132.096C189.44 128.512 187.392 124.928 184.832 123.392C183.808 123.904 183.296 123.392 182.272 122.88L181.248 121.856C180.224 121.856 179.2 121.344 178.688 121.344C172.544 121.344 167.936 125.952 167.936 132.096zM61.44 183.296C70.656 183.296 70.656 195.584 70.656 200.704S74.24 211.456 78.848 211.456S87.04 207.872 87.04 203.264C87.04 197.632 84.48 195.072 81.408 192C78.848 188.928 75.776 186.368 75.776 181.248V175.104C70.144 174.592 65.536 169.472 65.536 163.328C65.536 156.672 70.656 151.552 77.312 151.552S89.088 156.672 89.088 163.328C89.088 168.448 85.504 173.056 80.896 174.592V181.248C80.896 183.808 82.432 185.856 84.992 188.416C88.064 192 92.16 196.096 92.16 203.264C92.16 210.944 86.528 216.576 78.848 216.576S65.536 208.384 65.536 200.704C65.536 192 64.512 188.416 61.44 188.416C59.904 188.416 58.88 187.392 58.88 185.856S59.904 183.296 61.44 183.296zM83.968 163.328C83.968 159.744 80.896 156.672 77.312 156.672S70.656 159.744 70.656 163.328S73.728 169.984 77.312 169.984S83.968 166.912 83.968 163.328zM79.36 57.344C78.848 58.88 79.36 59.904 80.896 60.928C86.016 62.976 89.088 69.12 89.088 73.216C89.088 74.752 90.112 75.776 91.648 75.776S94.208 74.752 94.208 73.216C94.208 67.072 90.112 58.88 82.944 55.808H81.92C80.896 55.808 79.872 56.32 79.36 57.344zM93.184 132.096C93.184 140.8 86.016 147.968 77.312 147.968S61.44 140.8 61.44 132.096S68.608 116.224 77.312 116.224C79.36 116.224 80.896 116.736 82.432 117.248C92.672 103.424 103.936 84.48 103.936 72.192C103.936 57.856 91.648 45.568 77.312 45.568C62.464 45.568 50.688 57.344 50.688 72.192C50.688 79.872 55.808 91.648 65.024 106.496C65.536 107.52 65.536 109.056 64 110.08C62.976 110.592 61.44 110.592 60.416 109.056C50.176 93.184 45.056 80.384 45.056 71.68C45.056 54.272 59.392 39.936 76.8 39.936S108.544 54.272 108.544 71.68C108.544 87.552 93.184 110.592 86.528 119.296C90.624 122.368 93.184 126.976 93.184 132.096zM66.56 132.096C66.56 138.24 71.168 142.848 77.312 142.848S88.064 138.24 88.064 132.096C88.064 128.512 86.016 125.44 83.456 123.392C82.944 123.392 81.92 123.392 81.408 122.88C80.896 122.88 80.896 122.368 80.896 121.856C79.872 121.344 78.848 121.344 77.312 121.344C71.168 121.344 66.56 125.952 66.56 132.096z" />
    <glyph glyph-name="bagues"
      unicode="&#xEA14;"
      horiz-adv-x="256" d="M230.912 142.336V110.08C230.912 93.184 203.264 78.848 161.28 73.216H160.768C159.744 73.216 158.208 74.24 158.208 75.264C158.208 76.8 159.232 77.824 160.256 78.336C198.656 83.456 225.792 96.256 225.792 110.08V130.048C216.576 118.272 193.024 109.056 160.768 104.96H160.256C159.232 104.96 157.696 105.984 157.696 107.008C157.696 108.544 158.72 109.568 159.744 110.08C198.144 115.2 225.28 128 225.28 141.824C225.28 158.208 185.856 175.616 126.976 175.616S28.672 158.208 28.672 141.824C28.672 128 55.808 115.2 95.232 110.08C96.768 110.08 97.792 108.544 97.28 107.008S95.744 104.448 94.208 104.96C61.952 109.056 38.4 118.272 28.672 129.536V110.08C28.672 96.256 55.808 83.456 95.232 78.336C96.768 78.336 97.792 76.8 97.28 75.264C97.28 73.728 96.256 73.216 94.72 73.216H94.208C51.2 78.848 23.552 93.184 23.552 110.08V142.336V143.36C25.6 164.352 70.144 180.736 126.976 180.736C182.784 180.736 226.816 164.864 229.888 144.384C230.4 143.872 230.912 142.848 230.912 142.336zM133.632 69.12L128 62.976L122.368 68.608C121.344 69.632 119.808 69.632 118.784 68.608S117.76 66.048 118.784 65.024L126.464 57.344C126.976 56.832 127.488 56.832 128.512 56.832S130.048 56.832 130.56 57.344L138.24 65.024C139.264 66.048 139.264 67.584 138.24 68.608S134.656 69.632 133.632 69.12zM160.768 89.6C160.768 90.112 160.256 91.136 160.256 91.648L152.576 99.328C151.552 100.352 150.016 100.352 148.992 99.328S147.968 96.768 148.992 95.744L154.624 90.112L148.992 84.992C147.968 83.968 147.968 82.432 148.992 81.408C149.504 80.896 150.016 80.384 151.04 80.384C151.552 80.384 152.064 80.384 152.576 80.896L160.256 88.064S160.768 89.088 160.768 89.6zM133.632 110.592C134.144 110.08 134.656 110.08 135.68 110.08S137.216 110.08 137.728 110.592C138.752 111.616 138.752 113.152 137.728 114.176L130.048 121.856C129.024 122.88 127.488 122.88 126.464 121.856L118.784 114.176C117.76 113.152 117.76 111.616 118.784 110.592S121.344 109.568 122.368 110.592L128 116.224zM101.376 89.6L107.008 95.232C108.032 96.256 108.032 97.792 107.008 98.816S104.448 99.84 103.424 98.816L96.256 91.136C95.232 90.112 95.232 88.576 96.256 87.552L103.424 80.384C103.936 79.872 104.448 79.872 105.472 79.872S107.008 79.872 107.52 80.384C108.544 81.408 108.544 82.944 107.52 83.968zM134.656 94.208C135.168 94.208 135.68 94.208 136.192 94.72L146.944 104.96C147.968 105.984 147.968 107.52 146.944 108.544S144.384 109.568 143.36 108.544L132.608 98.304C131.584 97.28 131.584 95.744 132.608 94.72C133.12 94.72 134.144 94.208 134.656 94.208zM122.88 84.992C121.856 86.016 120.32 86.016 119.296 84.992L109.056 74.752C108.032 73.728 108.032 72.192 109.056 71.168C109.568 70.656 110.08 70.656 111.104 70.656S112.64 70.656 113.152 71.168L123.392 81.408C123.392 81.92 123.392 83.968 122.88 84.992zM108.544 109.056C107.52 108.032 107.52 106.496 108.544 105.472L118.784 95.232C119.296 94.72 119.808 94.72 120.832 94.72S122.368 94.72 122.88 95.232C123.904 96.256 123.904 97.792 122.88 98.816L112.64 109.056C111.616 109.568 109.568 109.568 108.544 109.056zM136.192 84.992C135.168 86.016 133.632 86.016 132.608 84.992S131.584 82.432 132.608 81.408L143.36 71.168C143.872 70.656 144.384 70.656 144.896 70.656S146.432 71.168 146.944 71.68C147.968 72.704 147.968 74.24 146.944 75.264zM205.824 133.12C206.336 134.656 205.824 135.68 204.288 136.704C185.344 144.384 157.184 148.992 127.488 148.992S69.632 144.384 50.688 136.704C49.152 136.192 48.64 134.656 49.152 133.12C49.664 132.096 50.688 131.584 51.712 131.584H52.736C71.168 139.264 98.304 143.872 127.488 143.872S183.808 139.264 202.24 131.584C203.776 131.072 205.312 132.096 205.824 133.12z" />
    <glyph glyph-name="semi-precieux"
      unicode="&#xEA15;"
      horiz-adv-x="256" d="M206.848 82.432L223.232 171.0080000000001C223.232 172.0320000000001 222.72 173.0560000000001 222.208 173.5680000000001S221.184 174.0800000000001 220.672 174.0800000000001L103.424 226.816C102.912 227.328 102.4 226.816 101.888 226.816H101.376C100.864 226.816 99.84 225.792 99.84 225.28L48.64 179.712C48.128 179.2 47.616 178.688 47.616 178.176L33.28 102.4V100.352C33.28 99.328 34.304 98.816 34.816 98.304L100.352 30.208C100.864 29.696 101.888 29.184 102.4 29.184S102.912 29.184 103.424 29.696C103.424 29.696 103.936 29.696 103.936 30.208L204.288 80.896C204.8 80.384 205.824 81.408 206.848 82.432zM43.008 97.28L146.432 85.504L102.4 35.84zM155.648 89.6L193.536 158.72L216.576 167.424L201.216 86.016zM188.416 159.232L151.552 92.672L95.744 183.296zM159.744 172.032L93.184 189.44L103.936 220.16L179.2 166.912zM90.112 182.784L146.432 91.648L40.448 103.424zM192 163.328L121.856 212.992L214.016 171.52zM88.576 189.952L59.392 182.784L97.28 216.576zM52.736 175.616L84.48 183.296L40.96 113.664L46.592 143.872zM151.552 84.992L193.536 81.408L111.616 39.936z" />
  </font>
</defs>
</svg>
